<?xml version="1.0" encoding="utf-8"?>
<!-- Generator: Adobe Illustrator 16.0.0, SVG Export Plug-In . SVG Version: 6.00 Build 0)  -->
<!DOCTYPE svg PUBLIC "-//W3C//DTD SVG 1.1//EN" "http://www.w3.org/Graphics/SVG/1.1/DTD/svg11.dtd">
<svg version="1.1" id="Layer_1" xmlns="http://www.w3.org/2000/svg" xmlns:xlink="http://www.w3.org/1999/xlink" x="0px" y="0px"
	 width="24px" height="24px" viewBox="0 0 24 24" enable-background="new 0 0 24 24" xml:space="preserve">
<g>
	<path fill="#F3142C" d="M22.215,20.644c0,0.426-0.156,0.793-0.467,1.104c-0.311,0.312-0.68,0.467-1.105,0.467
		c-0.441,0-0.811-0.154-1.105-0.467l-4.211-4.197c-1.465,1.014-3.098,1.521-4.898,1.521c-1.171,0-2.29-0.227-3.358-0.682
		c-1.067-0.453-1.988-1.068-2.762-1.842s-1.387-1.693-1.842-2.762c-0.454-1.069-0.681-2.187-0.681-3.358
		c0-1.17,0.227-2.289,0.681-3.357c0.455-1.068,1.068-1.988,1.842-2.762S6.002,2.922,7.07,2.467c1.068-0.454,2.188-0.681,3.358-0.681
		c1.169,0,2.291,0.227,3.359,0.681c1.066,0.455,1.988,1.068,2.762,1.842s1.387,1.693,1.842,2.762
		c0.453,1.068,0.682,2.188,0.682,3.357c0,1.802-0.508,3.435-1.523,4.899l4.211,4.211C22.062,19.841,22.215,20.21,22.215,20.644z
		 M14.314,14.314c1.076-1.076,1.613-2.371,1.613-3.886c0-1.514-0.537-2.809-1.613-3.885s-2.373-1.615-3.886-1.615
		c-1.515,0-2.81,0.539-3.886,1.615s-1.614,2.371-1.614,3.885c0,1.515,0.538,2.81,1.614,3.886s2.371,1.615,3.886,1.615
		C11.941,15.929,13.238,15.39,14.314,14.314z"/>
</g>
</svg>
